<?xml version="1.0" encoding="UTF-8" standalone="no"?>
<svg
   xmlns:dc="http://purl.org/dc/elements/1.1/"
   xmlns:cc="http://creativecommons.org/ns#"
   xmlns:rdf="http://www.w3.org/1999/02/22-rdf-syntax-ns#"
   xmlns:svg="http://www.w3.org/2000/svg"
   xmlns="http://www.w3.org/2000/svg"
   xmlns:xlink="http://www.w3.org/1999/xlink"
   xmlns:sodipodi="http://sodipodi.sourceforge.net/DTD/sodipodi-0.dtd"
   xmlns:inkscape="http://www.inkscape.org/namespaces/inkscape"
   version="1.1"
   x="0px"
   y="0px"
   viewBox="0 0 1000 1000"
   enable-background="new 0 0 1000 1000"
   xml:space="preserve"
   id="svg10"
   sodipodi:docname="delete_selected_tile.svg"
   inkscape:version="1.0 (4035a4fb49, 2020-05-01)"><defs
   id="defs14"><linearGradient
     inkscape:collect="always"
     id="linearGradient1006"><stop
       style="stop-color:#ff0000;stop-opacity:1;"
       offset="0"
       id="stop1002" /><stop
       style="stop-color:#ff0000;stop-opacity:0;"
       offset="1"
       id="stop1004" /></linearGradient><linearGradient
     inkscape:collect="always"
     xlink:href="#linearGradient1006"
     id="linearGradient1008"
     x1="31.410214"
     y1="476.47339"
     x2="968.84597"
     y2="476.47339"
     gradientUnits="userSpaceOnUse" /></defs><sodipodi:namedview
   inkscape:document-rotation="0"
   pagecolor="#ffffff"
   bordercolor="#666666"
   borderopacity="1"
   objecttolerance="10"
   gridtolerance="10"
   guidetolerance="10"
   inkscape:pageopacity="0"
   inkscape:pageshadow="2"
   inkscape:window-width="1920"
   inkscape:window-height="1000"
   id="namedview12"
   showgrid="false"
   inkscape:zoom="0.4185"
   inkscape:cx="-6.6683294"
   inkscape:cy="449.8407"
   inkscape:window-x="0"
   inkscape:window-y="25"
   inkscape:window-maximized="1"
   inkscape:current-layer="svg10" />
<metadata
   id="metadata2"> Svg Vector Icons : http://www.onlinewebfonts.com/icon <rdf:RDF><cc:Work
     rdf:about=""><dc:format>image/svg+xml</dc:format><dc:type
       rdf:resource="http://purl.org/dc/dcmitype/StillImage" /><dc:title></dc:title></cc:Work></rdf:RDF></metadata>
<path
   style="stroke-width:0.1;fill:#bd0000;fill-opacity:1"
   d="M 21.92,181.03 C 10.88,185.44 10,189.86 10,236.65 c 0,42.38 0.22,43.7 5.08,49.44 4.41,5.08 7.51,6.18 18.76,7.06 l 13.69,0.88 V 499.97 705.9 l -13.69,0.88 c -11.26,0.88 -14.35,1.99 -18.76,7.06 -4.86,5.74 -5.08,7.06 -5.08,50.1 0,43.48 0,44.14 5.3,49.44 7.28,7.28 14.57,8.16 58.05,7.28 36.42,-0.66 37.96,-0.88 43.48,-5.96 4.64,-4.19 5.74,-7.51 6.18,-18.76 l 0.66,-13.46 H 500 876.33 l 0.66,13.46 c 0.44,11.26 1.55,14.57 6.18,18.76 5.52,5.08 7.06,5.3 43.48,5.96 43.48,0.88 50.77,0 58.05,-7.28 5.3,-5.3 5.3,-5.96 5.3,-49.44 0,-43.04 -0.22,-44.36 -5.08,-50.1 -4.41,-5.08 -7.51,-6.18 -18.76,-7.06 L 952.48,705.9 V 499.97 294.04 l 13.68,-0.88 c 11.26,-0.88 14.35,-1.99 18.76,-7.06 4.86,-5.74 5.08,-7.06 5.08,-49.88 0,-43.26 0,-43.92 -5.3,-50.1 l -5.3,-6.18 -39.29,-0.66 c -21.63,-0.44 -42.6,-0.22 -46.57,0.66 -11.7,2.21 -16.11,8.61 -16.11,23.62 v 12.8 H 500 122.57 v -12.8 c 0,-11.04 -0.88,-13.68 -5.74,-18.32 -5.52,-5.08 -6.62,-5.3 -47.9,-5.74 -23.39,-0.24 -44.58,0.43 -47.01,1.53 z m 855.51,87.63 c 0,7.06 1.32,14.57 3.09,16.55 3.97,5.3 13.02,8.39 24.72,8.39 h 9.71 v 206.37 206.37 h -11.04 c -12.14,0 -22.96,4.41 -25.16,9.93 -0.66,1.98 -1.32,9.05 -1.32,15.67 v 11.92 H 500 122.57 v -12.8 C 122.35,712.52 115.95,706.34 96.3,706.34 H 85.04 V 500.19 294.04 l 13.24,-0.88 c 18.76,-1.32 24.28,-6.84 24.28,-24.28 v -12.8 H 500 877.43 Z"
   id="path4" />
<path
   style="fill:none;stroke:#fd0000;stroke-width:50;stroke-linecap:round;stroke-linejoin:miter;stroke-opacity:1;stroke-miterlimit:4;stroke-dasharray:none"
   d="M 57.651955,125.91009 945.08772,856.5551"
   id="path985" /><path
   id="path985-3"
   d="M 943.84597,111.15088 56.410214,841.79589"
   style="fill:url(#linearGradient1008);stroke:#fc0000;stroke-width:50;stroke-linecap:round;stroke-linejoin:miter;stroke-miterlimit:4;stroke-dasharray:none;stroke-opacity:1;fill-opacity:1" /></svg>
